Ambient air quality, WHO– EDA
…
View(dataset)

#dataset <- read_excel("who_data.xlsx")

dataset

## # A tibble: 40,388 × 20
##    who_region iso3  country_name city              year ...6  pm10_concentration
##    <chr>      <chr> <chr>        <chr>            <dbl> <lgl>              <dbl>
##  1 4_Eur      ESP   Spain        A Coruna/ESP      2013 NA                  23.2
##  2 4_Eur      ESP   Spain        A Coruna/ESP      2014 NA                  27.5
##  3 4_Eur      ESP   Spain        A Coruna/ESP      2015 NA                  25.5
##  4 4_Eur      ESP   Spain        A Coruna/ESP      2016 NA                  23.1
##  5 4_Eur      ESP   Spain        A Coruna/ESP      2017 NA                  26.8
##  6 4_Eur      ESP   Spain        A Coruna/ESP      2018 NA                  27.8
##  7 4_Eur      ESP   Spain        A Coruna/ESP      2019 NA                  26.9
##  8 4_Eur      ESP   Spain        A Coruna/ESP      2020 NA                  24.9
##  9 4_Eur      ESP   Spain        A Coruna/ESP      2021 NA                  23.2
## 10 6_Wpr      CHN   China        A La Shan Zuo Q…  2015 NA                  NA  
## # ℹ 40,378 more rows
## # ℹ 13 more variables: pm25_concentration <dbl>, no2_concentration <dbl>,
## #   pm10_tempcov <dbl>, pm25_tempcov <dbl>, no2_tempcov <dbl>,
## #   type_of_stations <chr>, ...14 <lgl>, ...15 <lgl>, population <dbl>,
## #   ...17 <lgl>, latitude <dbl>, longitude <dbl>, who_ms <dbl>
…
